[
    {
        "athlete": "michael phelps",
        "country": "USA",
        "mark": "01:54.27"
    },
    {
        "athlete": "ryan lochte",
        "country": "USA",
        "mark": "01:54.90"
    },
    {
        "athlete": "laszlo cseh",
        "country": "HUN",
        "mark": "01:56.22"
    },
    {
        "athlete": "thiago pereira",
        "country": "BRA",
        "mark": "01:56.74"
    },
    {
        "athlete": "kosuke hagino",
        "country": "JPN",
        "mark": "01:57.35"
    },
    {
        "athlete": "ken takakuwa",
        "country": "JPN",
        "mark": "01:58.53"
    },
    {
        "athlete": "james goddard",
        "country": "GBR",
        "mark": "01:59.05"
    },
    {
        "athlete": "markus deibler",
        "country": "GER",
        "mark": "01:59.10"
    }
]